<?xml version="1.0" encoding="UTF-8" standalone="no"?>
<!-- Generator: Adobe Illustrator 19.0.0, SVG Export Plug-In . SVG Version: 6.00 Build 0)  -->

<svg
   xmlns:dc="http://purl.org/dc/elements/1.1/"
   xmlns:cc="http://creativecommons.org/ns#"
   xmlns:rdf="http://www.w3.org/1999/02/22-rdf-syntax-ns#"
   xmlns:svg="http://www.w3.org/2000/svg"
   xmlns="http://www.w3.org/2000/svg"
   xmlns:sodipodi="http://sodipodi.sourceforge.net/DTD/sodipodi-0.dtd"
   xmlns:inkscape="http://www.inkscape.org/namespaces/inkscape"
   version="1.1"
   id="Layer_1"
   x="100px"
   y="100px"
   viewBox="0 0 299.9996 300"
   xml:space="preserve"
   inkscape:version="0.91 r13725"
   sodipodi:docname="telegram.svg"
   width="299.9996"
   height="300"><metadata
     id="metadata3452"><rdf:RDF><cc:Work
         rdf:about=""><dc:format>image/svg+xml</dc:format><dc:type
           rdf:resource="http://purl.org/dc/dcmitype/StillImage" /><dc:title></dc:title></cc:Work></rdf:RDF></metadata><defs
     id="defs3450" /><sodipodi:namedview
     pagecolor="#ffffff"
     bordercolor="#666666"
     borderopacity="1"
     objecttolerance="10"
     gridtolerance="10"
     guidetolerance="10"
     inkscape:pageopacity="0"
     inkscape:pageshadow="2"
     inkscape:window-width="1366"
     inkscape:window-height="742"
     id="namedview3448"
     showgrid="false"
     inkscape:zoom="1.1125147"
     inkscape:cx="2.9571228"
     inkscape:cy="168.15969"
     inkscape:window-x="0"
     inkscape:window-y="0"
     inkscape:window-maximized="1"
     inkscape:current-layer="XMLID_496_"
     fit-margin-top="0"
     fit-margin-left="0"
     fit-margin-right="0"
     fit-margin-bottom="0" /><g
     id="XMLID_496_"
     transform="matrix(-1,0,0,1,299.99972,19.399451)"><path
       class="ti-red"
       id="XMLID_497_"
       d="m 5.299,126.84499 69.126,25.8 26.756,86.047 c 1.712,5.511 8.451,7.548 12.924,3.891 l 38.532,-31.412 c 4.039,-3.291 9.792,-3.455 14.013,-0.391 l 69.498,50.457 c 4.785,3.478 11.564,0.856 12.764,-4.926 L 299.823,11.419987 c 1.31,-6.316 -4.896,-11.585 -10.91,-9.259 L 5.218,111.60199 c -7.001,2.7 -6.94,12.612 0.081,15.243 z m 91.57,12.066 135.098,-83.207003 c 2.428,-1.491 4.926,1.792 2.841,3.726 L 123.313,163.06999 c -3.919,3.648 -6.447,8.53 -7.163,13.829 l -3.798,28.146 c -0.503,3.758 -5.782,4.131 -6.819,0.494 l -14.607,-51.325 c -1.673,-5.854 0.765,-12.107 5.943,-15.303 z"
       inkscape:connector-curvature="0"
       style="fill:#d5d3bc;fill-opacity:1" /></g></svg>